<?xml version="1.0" encoding="utf-8"?>
<!-- Generator: Adobe Illustrator 23.0.3, SVG Export Plug-In . SVG Version: 6.00 Build 0)  -->
<svg version="1.1" id="Calque_1" xmlns="http://www.w3.org/2000/svg" xmlns:xlink="http://www.w3.org/1999/xlink" x="0px" y="0px"
	 viewBox="0 0 841.89 595.28" style="enable-background:new 0 0 841.89 595.28;" xml:space="preserve">
<style type="text/css">
	.st0{fill:none;}
	.st1{fill:#FFFFFF;stroke:#9D82A8;stroke-miterlimit:10;}
	.st2{font-family:'Roboto-Bold';}
	.st3{font-size:120px;}
	.st4{letter-spacing:24;}
</style>
<rect x="19.26" y="263.7" class="st0" width="805.34" height="129.72"/>
<text transform="matrix(1 0 0 1 19.2612 355.1074)" class="st1 st2 st3 st4">FEEL BACK</text>
</svg>
